%YAML 1.1
%TAG !u! tag:unity3d.com,2011:
--- !u!1045 &1
EditorBuildSettings:
  m_ObjectHideFlags: 0
  serializedVersion: 2
  m_Scenes:
  - enabled: 1
    path: Assets/gameSceneMain.unity
    guid: 1f80fc4c2bae27340a94690dc660c9f9
  - enabled: 1
    path: Assets/level1.unity
    guid: 63e8e0d9a2b32f14cacaf3aa2fe6db70
  - enabled: 1
    path: Assets/level2.unity
    guid: 76096d539af9c87488ea1bad660cc827
  - enabled: 1
    path: Assets/level3.unity
    guid: b2121bd1e498d044ea5c023d05ee45fc
  - enabled: 1
    path: Assets/level4.unity
    guid: 4f2f325c5ee5d0b4da4167a45894ed4b
  - enabled: 1
    path: Assets/level5.unity
    guid: 219d77aeb513a774daa31113ee2a148a
  - enabled: 1
    path: Assets/level6 new.unity
    guid: 9e666c7f59df1f84db11551362ffaf89
  - enabled: 1
    path: Assets/level7new.unity
    guid: 2691eb6b55098414d97c19f92053d93b
  - enabled: 1
    path: Assets/level8.unity
    guid: 5d9b477346932604391fba3e66e56312
  - enabled: 1
    path: Assets/level9.unity
    guid: 4ef18591ef2e69546a02af8511e0cf87
  - enabled: 1
    path: Assets/level10 hard.unity
    guid: 4963021dccd657f41b5b73e4857b1f58
  - enabled: 1
    path: Assets/level11 hard.unity
    guid: 920d1da0dc7a27344bebbaeeb3e675fc
  m_configObjects: {}
